%YAML 1.1
%TAG !u! tag:unity3d.com,2011:
--- !u!74 &7400000
AnimationClip:
  m_ObjectHideFlags: 0
  m_CorrespondingSourceObject: {fileID: 0}
  m_PrefabInstance: {fileID: 0}
  m_PrefabAsset: {fileID: 0}
  m_Name: Idle
  serializedVersion: 6
  m_Legacy: 0
  m_Compressed: 0
  m_UseHighQualityCurve: 1
  m_RotationCurves: []
  m_CompressedRotationCurves: []
  m_EulerCurves: []
  m_PositionCurves: []
  m_ScaleCurves: []
  m_FloatCurves: []
  m_PPtrCurves:
  - curve:
    - time: 0
      value: {fileID: 21300000, guid: ee5a8ee981d56054eb5743c57f60a226, type: 3}
    - time: 0.055555556
      value: {fileID: 21300000, guid: 005bdfda899fd4b47bf8a6967f98757b, type: 3}
    - time: 0.11111111
      value: {fileID: 21300000, guid: 64148038d37d82b4eb735a9fd0c1d43d, type: 3}
    - time: 0.16666667
      value: {fileID: 21300000, guid: 4819ad19228278c469aa5227b72c58a5, type: 3}
    - time: 0.22222222
      value: {fileID: 21300000, guid: fd534f6ca18f86c4198cbd6e0a621458, type: 3}
    - time: 0.2777778
      value: {fileID: 21300000, guid: a61145e5e19392148be6e4fe984b9397, type: 3}
    - time: 0.33333334
      value: {fileID: 21300000, guid: 5c52a7a6ac34d664e8bd1c3977540cfa, type: 3}
    - time: 0.3888889
      value: {fileID: 21300000, guid: d957d34d5094f804b8c150c1604fc877, type: 3}
    - time: 0.44444445
      value: {fileID: 21300000, guid: e044da047b9461846be25098246acbe1, type: 3}
    - time: 0.5
      value: {fileID: 21300000, guid: 9031de46caceb314784ee2af75e97868, type: 3}
    - time: 0.5555556
      value: {fileID: 21300000, guid: 81b23322f5db23342baac3cb669b37d3, type: 3}
    - time: 0.6111111
      value: {fileID: 21300000, guid: 4e56673b5d0a22c4a98d9b3dadafde87, type: 3}
    - time: 0.6666667
      value: {fileID: 21300000, guid: 8d096315d618e5a4c9e0552214400f66, type: 3}
    - time: 0.7222222
      value: {fileID: 21300000, guid: b2d72b83bc765a3409f5a9f3c7be0d6f, type: 3}
    - time: 0.7777778
      value: {fileID: 21300000, guid: f3a4e4ae4cf72824db810c62903ce267, type: 3}
    - time: 0.8333333
      value: {fileID: 21300000, guid: f3a4e4ae4cf72824db810c62903ce267, type: 3}
    - time: 0.8888889
      value: {fileID: 21300000, guid: f3a4e4ae4cf72824db810c62903ce267, type: 3}
    - time: 0.9444444
      value: {fileID: 21300000, guid: fa671fdbfaf4a4340aae5a36a830fea7, type: 3}
    attribute: m_Sprite
    path: 
    classID: 212
    script: {fileID: 0}
  m_SampleRate: 18
  m_WrapMode: 0
  m_Bounds:
    m_Center: {x: 0, y: 0, z: 0}
    m_Extent: {x: 0, y: 0, z: 0}
  m_ClipBindingConstant:
    genericBindings:
    - serializedVersion: 2
      path: 0
      attribute: 0
      script: {fileID: 0}
      typeID: 212
      customType: 23
      isPPtrCurve: 1
    pptrCurveMapping:
    - {fileID: 21300000, guid: ee5a8ee981d56054eb5743c57f60a226, type: 3}
    - {fileID: 21300000, guid: 005bdfda899fd4b47bf8a6967f98757b, type: 3}
    - {fileID: 21300000, guid: 64148038d37d82b4eb735a9fd0c1d43d, type: 3}
    - {fileID: 21300000, guid: 4819ad19228278c469aa5227b72c58a5, type: 3}
    - {fileID: 21300000, guid: fd534f6ca18f86c4198cbd6e0a621458, type: 3}
    - {fileID: 21300000, guid: a61145e5e19392148be6e4fe984b9397, type: 3}
    - {fileID: 21300000, guid: 5c52a7a6ac34d664e8bd1c3977540cfa, type: 3}
    - {fileID: 21300000, guid: d957d34d5094f804b8c150c1604fc877, type: 3}
    - {fileID: 21300000, guid: e044da047b9461846be25098246acbe1, type: 3}
    - {fileID: 21300000, guid: 9031de46caceb314784ee2af75e97868, type: 3}
    - {fileID: 21300000, guid: 81b23322f5db23342baac3cb669b37d3, type: 3}
    - {fileID: 21300000, guid: 4e56673b5d0a22c4a98d9b3dadafde87, type: 3}
    - {fileID: 21300000, guid: 8d096315d618e5a4c9e0552214400f66, type: 3}
    - {fileID: 21300000, guid: b2d72b83bc765a3409f5a9f3c7be0d6f, type: 3}
    - {fileID: 21300000, guid: f3a4e4ae4cf72824db810c62903ce267, type: 3}
    - {fileID: 21300000, guid: f3a4e4ae4cf72824db810c62903ce267, type: 3}
    - {fileID: 21300000, guid: f3a4e4ae4cf72824db810c62903ce267, type: 3}
    - {fileID: 21300000, guid: fa671fdbfaf4a4340aae5a36a830fea7, type: 3}
  m_AnimationClipSettings:
    serializedVersion: 2
    m_AdditiveReferencePoseClip: {fileID: 0}
    m_AdditiveReferencePoseTime: 0
    m_StartTime: 0
    m_StopTime: 1
    m_OrientationOffsetY: 0
    m_Level: 0
    m_CycleOffset: 0
    m_HasAdditiveReferencePose: 0
    m_LoopTime: 1
    m_LoopBlend: 0
    m_LoopBlendOrientation: 0
    m_LoopBlendPositionY: 0
    m_LoopBlendPositionXZ: 0
    m_KeepOriginalOrientation: 0
    m_KeepOriginalPositionY: 1
    m_KeepOriginalPositionXZ: 0
    m_HeightFromFeet: 0
    m_Mirror: 0
  m_EditorCurves: []
  m_EulerEditorCurves: []
  m_HasGenericRootTransform: 0
  m_HasMotionFloatCurves: 0
  m_Events: []
