%YAML 1.1
%TAG !u! tag:unity3d.com,2011:
--- !u!74 &7400000
AnimationClip:
  m_ObjectHideFlags: 0
  m_CorrespondingSourceObject: {fileID: 0}
  m_PrefabInstance: {fileID: 0}
  m_PrefabAsset: {fileID: 0}
  m_Name: Attack
  serializedVersion: 6
  m_Legacy: 0
  m_Compressed: 0
  m_UseHighQualityCurve: 1
  m_RotationCurves: []
  m_CompressedRotationCurves: []
  m_EulerCurves: []
  m_PositionCurves: []
  m_ScaleCurves: []
  m_FloatCurves: []
  m_PPtrCurves:
  - curve:
    - time: 0
      value: {fileID: 21300000, guid: 49e3f1f50e87f85458d92b03214bfbd0, type: 3}
    - time: 0.083333336
      value: {fileID: 21300000, guid: dc873c7047a2e9340b50d3fa2e2acf20, type: 3}
    - time: 0.16666667
      value: {fileID: 21300000, guid: bdd516204ea21cf4799bbf5979988aa1, type: 3}
    - time: 0.25
      value: {fileID: 21300000, guid: 3c06a6f5690ced54998b8801758b7246, type: 3}
    - time: 0.33333334
      value: {fileID: 21300000, guid: faefcbcc000e5d74eb9556c65eb23627, type: 3}
    - time: 0.41666666
      value: {fileID: 21300000, guid: 41a656faf727ff445a6485dbc5219ab4, type: 3}
    - time: 0.5
      value: {fileID: 21300000, guid: acc9c43913753e54c81e91155ff810a4, type: 3}
    - time: 0.5833333
      value: {fileID: 21300000, guid: 45555b1164b17644db11e6bebf51bc75, type: 3}
    - time: 0.6666667
      value: {fileID: 21300000, guid: fc97d76cc4f40364cb1c598af20f5997, type: 3}
    - time: 0.75
      value: {fileID: 21300000, guid: 84581da44bb1f604d8bf5d77da120583, type: 3}
    - time: 0.8333333
      value: {fileID: 21300000, guid: a7531db12d5e0d9498a5a349cc97f6c0, type: 3}
    - time: 0.9166667
      value: {fileID: 21300000, guid: 53b4c8b59250ccd4b84b444b4d4d9827, type: 3}
    attribute: m_Sprite
    path: 
    classID: 212
    script: {fileID: 0}
  m_SampleRate: 12
  m_WrapMode: 0
  m_Bounds:
    m_Center: {x: 0, y: 0, z: 0}
    m_Extent: {x: 0, y: 0, z: 0}
  m_ClipBindingConstant:
    genericBindings:
    - serializedVersion: 2
      path: 0
      attribute: 0
      script: {fileID: 0}
      typeID: 212
      customType: 23
      isPPtrCurve: 1
    pptrCurveMapping:
    - {fileID: 21300000, guid: 49e3f1f50e87f85458d92b03214bfbd0, type: 3}
    - {fileID: 21300000, guid: dc873c7047a2e9340b50d3fa2e2acf20, type: 3}
    - {fileID: 21300000, guid: bdd516204ea21cf4799bbf5979988aa1, type: 3}
    - {fileID: 21300000, guid: 3c06a6f5690ced54998b8801758b7246, type: 3}
    - {fileID: 21300000, guid: faefcbcc000e5d74eb9556c65eb23627, type: 3}
    - {fileID: 21300000, guid: 41a656faf727ff445a6485dbc5219ab4, type: 3}
    - {fileID: 21300000, guid: acc9c43913753e54c81e91155ff810a4, type: 3}
    - {fileID: 21300000, guid: 45555b1164b17644db11e6bebf51bc75, type: 3}
    - {fileID: 21300000, guid: fc97d76cc4f40364cb1c598af20f5997, type: 3}
    - {fileID: 21300000, guid: 84581da44bb1f604d8bf5d77da120583, type: 3}
    - {fileID: 21300000, guid: a7531db12d5e0d9498a5a349cc97f6c0, type: 3}
    - {fileID: 21300000, guid: 53b4c8b59250ccd4b84b444b4d4d9827, type: 3}
  m_AnimationClipSettings:
    serializedVersion: 2
    m_AdditiveReferencePoseClip: {fileID: 0}
    m_AdditiveReferencePoseTime: 0
    m_StartTime: 0
    m_StopTime: 1
    m_OrientationOffsetY: 0
    m_Level: 0
    m_CycleOffset: 0
    m_HasAdditiveReferencePose: 0
    m_LoopTime: 1
    m_LoopBlend: 0
    m_LoopBlendOrientation: 0
    m_LoopBlendPositionY: 0
    m_LoopBlendPositionXZ: 0
    m_KeepOriginalOrientation: 0
    m_KeepOriginalPositionY: 1
    m_KeepOriginalPositionXZ: 0
    m_HeightFromFeet: 0
    m_Mirror: 0
  m_EditorCurves: []
  m_EulerEditorCurves: []
  m_HasGenericRootTransform: 0
  m_HasMotionFloatCurves: 0
  m_Events:
  - time: 0.6666667
    functionName: Shoot
    data: 
    objectReferenceParameter: {fileID: 0}
    floatParameter: 0
    intParameter: 0
    messageOptions: 0
  - time: 1
    functionName: TransitToFlyPath
    data: 
    objectReferenceParameter: {fileID: 0}
    floatParameter: 0
    intParameter: 0
    messageOptions: 0
